tezt/_regressions/protocol.alpha.tez.out

./tezos-codec encode alpha.tez from '"7322135"'
97f4be03

./tezos-codec decode alpha.tez from 97f4be03
"7322135"

./tezos-codec encode alpha.tez from '"0"'
00

./tezos-codec decode alpha.tez from 00
"0"
